﻿  Bullet.cpp
  FIT2096 - Week 6.vcxproj -> C:\Users\cheryl\Source\Repos\fit2096-assignment-2b\FIT2096 Week 6 Solution\FIT2096 - Week 6 Solution\Debug\FIT2096 - Week 6 Solution.exe
  FIT2096 - Week 6.vcxproj -> C:\Users\cheryl\Source\Repos\fit2096-assignment-2b\FIT2096 Week 6 Solution\FIT2096 - Week 6 Solution\Debug\FIT2096 - Week 6 Solution.pdb (Full PDB)
